{
    "Version": "2012-10-17",
    "Statement": [
        {
            "Effect": "Allow",
            "Action": "iam:PassRole",
            "Resource": "arn:aws:iam::<account>:role/eksctl-<clustername>-nodegroup-*"
        },
        {
            "Effect": "Allow",
            "Action": [
                "ec2:CreateLaunchTemplateVersion",
                "ec2:DescribeImages",
                "ec2:DescribeInstances",
                "ec2:RunInstances",
                "ec2:TerminateInstances",
                "autoscaling:CreateLaunchConfiguration",
                "autoscaling:DescribeAutoScalingInstances",
                "autoscaling:DescribeAutoScalingGroups",
                "autoscaling:DescribeLaunchConfigurations",
                "autoscaling:DetachInstances",
                "autoscaling:UpdateAutoScalingGroup",
                "sts:GetCallerIdentity"
            ],
            "Resource": "*"
        }
    ]
}
